[
  {
    "question": "Da li je moguce da delimo podatke izmedju dva Aktivitija?",
    "ansA": "Da, uz pomoc Intent putExtra() metode",
    "ansB": "Da, uz pomoc Intent putData() metode",
    "ansC": "Ne",
    "ansD": "",
    "ansE": "",
    "correctAns": "Da, uz pomoc Intent putExtra() metode"
  },
  {
    "question": "Sta je output Android kompajlera?",
    "ansA": "Android package file",
    "ansB": "Executable file (.exe)",
    "ansC": "Executable script",
    "ansD": "",
    "ansE": "",
    "correctAns": "Android package file"
  },
  {
    "question": "Koju metodu koristimo da pokrenemo servis?",
    "ansA": "startService()",
    "ansB": "startServiceImplicit()",
    "ansC": "runService()",
    "ansD": "",
    "ansE": "",
    "correctAns": "startService()"
  },
  {
    "question": "Koju metodu koristimo da pokrenemo novi Aktiviti?",
    "ansA": "startActivityForResult()",
    "ansB": "activityForResult()",
    "ansC": "startActivity()",
    "ansD": "Ne.",
    "ansE": "",
    "correctAns": "startActivity()"
  },
  {
    "question": "U kojoj metodi definisemo layout Aktivitja?",
    "ansA": "onCreateView()",
    "ansB": "setContentView()",
    "ansC": "setView()",
    "ansD": "setContentLayout()",
    "ansE": "setLayout",
    "correctAns": "setContentView()"
  },
  {
    "question": "Koji callback se prvo poziva kad se kreira Aktiviti?",
    "ansA": "onStart()",
    "ansB": "onInit()",
    "ansC": "onCreate()",
    "ansD": "onResume",
    "ansE": "",
    "correctAns": "onCreate()"
  },
  {
    "question": "Svaki proces u androidu ima svoju Virtuelnu Masinu(VM)\n\nDa li je ovo tacno?",
    "ansA": "Da",
    "ansB": "Ne, svi procesi koriste istu VM",
    "ansC": "Neki procesi dele VM a neki imaju svoje posebne",
    "ansD": "",
    "ansE": "",
    "correctAns": "Da"
  },
  {
    "question": "Aktiviti, Servisi i Broadcast resiveri se aktiviraju pomocu asinhrone poruke koja se naziva?",
    "ansA": "action",
    "ansB": "intent",
    "ansC": "object",
    "ansD": "event",
    "ansE": "",
    "correctAns": "intent"
  },
  {
    "question": "Za sta koristimo Kontent provajdere?",
    "ansA": "Da cuvamo podatke u bazi",
    "ansB": "Da cuvamo podatke na uredjaju",
    "ansC": "Da delimo podatke izmedju Fragmenata",
    "ansD": "Da delimo podatke izmedju aplikacija",
    "ansE": "",
    "correctAns": "Da delimo podatke izmedju aplikacija"
  },
  {
    "question": "Koji Intent koristimo da pokrenemo komponentu odredjenu imenom?",
    "ansA": "Explicit intent",
    "ansB": "Default intent",
    "ansC": "Implicit intent",
    "ansD": "Named Intent",
    "ansE": "",
    "correctAns": "Explicit intent"
  },
  {
    "question": "Koja klasa se koristi da instancija layout XML file u View objekata?",
    "ansA": "Inflater",
    "ansB": "LayoutInflater",
    "ansC": "LayoutManager",
    "ansD": "ViewInflater",
    "ansE": "",
    "correctAns": "LayoutInflater"
  },
  {
    "question": "Koju klasa je nadklasa svih klasa?",
    "ansA": "AppCompact",
    "ansB": "Aplication",
    "ansC": "Activity",
    "ansD": "Object",
    "ansE": "",
    "correctAns": "Object"
  },
  {
    "question": "Koju metodu koristimo da posaljemo poruku drugoj aplikaciji?",
    "ansA": "sendMsg()",
    "ansB": "sendBroadcast()",
    "ansC": "sendBroadcastMsg()",
    "ansD": "Nije moguce poslati poruku",
    "ansE": "",
    "correctAns": "sendBroadcast()"
  },
  {
    "question": "Koju metodu koristimo da pokrenemo novi aktiviti ako zelimo da dobijemo rezultat aktivitija kad se zavrsi?",
    "ansA": "startActivityForResult()",
    "ansB": "activityForResult()",
    "ansC": "startActivity()",
    "ansD": "runActivityForResult",
    "ansE": "",
    "correctAns": "startActivityForResult()"
  },
  {
    "question": "Koju metodu se poziva kada je item selektiran u option manu-u?",
    "ansA": "onOptionSelected()",
    "ansB": "onItemSelected()",
    "ansC": "onOptionItemSelected()",
    "ansD": "OnOptionItemPressed()",
    "ansE": "",
    "correctAns": "onOptionItemSelected()"
  },
  {
    "question": "Koji intent koristimo za pokretaje komponente iz druge aplikacije?",
    "ansA": "Explicit intent",
    "ansB": "Named intent",
    "ansC": "Default inent",
    "ansD": "Implicit intent",
    "ansE": "",
    "correctAns": "Implicit intent"
  },
  {
    "question": "Koju metodu koristimo da pokrenemo Aktiviti a da ga pre toga nismo deklarisali u Manifestu?",
    "ansA": "startActivity()",
    "ansB": "Nije moguce pokrenuti Aktiviti a da ga pre toga ne deklarisemo u Manifest",
    "ansC": "startActivityForResult()",
    "ansD": "activityForResult()",
    "ansE": "",
    "correctAns": "Nije moguce pokrenuti Aktiviti a da ga pre toga ne deklarisemo u Manifest"
  },
  {
    "question": "Da li je moguce da manipulisemo koriscnikim interfejsom sa threda koji nije UI thread?",
    "ansA": "Da , moguce je da manipulisemo sa bilo kog threda",
    "ansB": "Ne, mozemo ga manipulisati samo preko UI threda",
    "ansC": "",
    "ansD": "",
    "ansE": "",
    "correctAns": "Ne, mozemo ga manipulisati samo preko UI threda"
  },
  {
    "question": "Na kom callbacku Aktivitija deklarisemo setContentView()?",
    "ansA": "onCreateView()",
    "ansB": "onStart()",
    "ansC": "onResume()",
    "ansD": "onInit()",
    "ansE": "onCreate()",
    "correctAns": "onCreate()"
  },
  {
    "question": "Sta od navedenog koristimo da prikazem HTML web stranu?",
    "ansA": "HTMLView",
    "ansB": "WebView",
    "ansC": "BrowserView",
    "ansD": "WebBrowser",
    "ansE": "",
    "correctAns": "WebView"
  },
  {
    "question": "Sta treba da deklarisemo u Manifestu da bi dozvolili drugim aplikacija da direktno pokrenu aktiviti odredjenog intenta?",
    "ansA": "Intent action",
    "ansB": "Intent",
    "ansC": "Intent filter",
    "ansD": "Intent service",
    "ansE": "Activity filter",
    "correctAns": "Intent filter"
  },
  {
    "question": "Koja je razlika izmedju match_parent i fill_parent?",
    "ansA": "match_parent se koristi samo za ViewGroup",
    "ansB": "Nema razlike al je fill_parent deprecated od API levela 8",
    "ansC": "fill_parent se koristi samo za ViewGroup",
    "ansD": "Nema razlike al je match_parent deprecated od API levela 8",
    "ansE": "",
    "correctAns": "Nema razlike al je fill_parent deprecated od API levela 8"
  },
  {
    "question": "Koji fajl se koristimo da deklarisemo komponente aplikacije?",
    "ansA": "AndroidManifest.xml",
    "ansB": "Android.xml",
    "ansC": "AndroidSystem.xml",
    "ansD": "Manifest.xml",
    "ansE": "",
    "correctAns": "AndroidManifest.xml"
  },
  {
    "question": "Koje metode Aktivitija koristimo da sacuvamo state inforamacije?",
    "ansA": "onSaveActivityState",
    "ansB": "onSave()",
    "ansC": "onSaveState()",
    "ansD": "onSavedInstanceState()",
    "ansE": "",
    "correctAns": "onSavedInstanceState()"
  },
  {
    "question": "Koju bazu koristi Android Studio?",
    "ansA": "PostgreSQL",
    "ansB": "MyAQL",
    "ansC": "Oracle",
    "ansD": "SQLite",
    "ansE": "",
    "correctAns": "SQLite"
  },
  {
    "question": "Sta koristimo za interakciju sa userom?",
    "ansA": "Activity",
    "ansB": "Service",
    "ansC": "Content Provider",
    "ansD": "Broadcast Receivers",
    "ansE": "",
    "correctAns": "Activity"
  },
  {
    "question": "Koja komponenta nam sluzi da izvrsavamo duge procese u background-u cak i kada user iskljuci aplikaciju?",
    "ansA": "Task",
    "ansB": "Activity",
    "ansC": "Service",
    "ansD": "Thread",
    "ansE": "",
    "correctAns": "Service"
  },
  {
    "question": "Koju metodu koristimo da pokrenemo Servis a da ga pre toga nismo deklarisali u Manifestu?",
    "ansA": "startActivity()",
    "ansB": "Nije moguce pokrenuti Servis a da ga pre toga ne deklarisemo u Manifest",
    "ansC": "startActivityForResult()",
    "ansD": "activityForResult()",
    "ansE": "",
    "correctAns": "Nije moguce pokrenuti Servis a da ga pre toga ne deklarisemo u Manifest"
  },
  {
    "question": "Koju callback se poziva kada se fragment poveze sa aktivitijem?",
    "ansA": "onAssociate()",
    "ansB": "onAttach()",
    "ansC": "onCreate()",
    "ansD": "onCreateView()",
    "ansE": "",
    "correctAns": "onAttach()"
  },
  {
    "question": "Koja od navedenih komponenti se ne ubraja u 4 glave Androidove komponente?",
    "ansA": "Aktiviti",
    "ansB": "Servis",
    "ansC": "BroadCast resiver",
    "ansD": "Fragment",
    "ansE": "Kontent provjader",
    "correctAns": "Fragment"
  },
  {
    "question": "Cetiri osnovne komponente Android programiranja su?",
    "ansA": "Aktiviti, Servis, Intent, BroadCast resiver",
    "ansB": "Aktiviti, Servis, Fragment, BroadCast resiver",
    "ansC": "Aktiviti, Servis, Intent, Kontent provajder",
    "ansD": "Aktiviti, Fragment, Intent, BroadCast resiver",
    "ansE": "Aktiviti, Servis, Kontent provajder, BroadCast resiver",
    "correctAns": "Aktiviti, Servis, Kontent provajder, BroadCast resiver"
  },
  {
    "question": "Koju od navedenih metoda koristimo da dobijemo Context?",
    "ansA": "getActivityContext",
    "ansB": "getContext",
    "ansC": "getMainContext",
    "ansD": "",
    "ansE": "",
    "correctAns": "getContext"
  },
  {
    "question": "Kako mozemo da podesimo orjentaciju Linear layouta programski?",
    "ansA": "getOrientation()",
    "ansB": "setOrientation()",
    "ansC": "changeOrientation()",
    "ansD": "",
    "ansE": "",
    "correctAns": "setOrientation()"
  },
  {
    "question": "Koji callback-ci se pozivaju kada kliknemo back button koji izlazi iz aplikacije?",
    "ansA": "onStop(), onDestroy()",
    "ansB": "onPause(), onStop(), onDestroy()",
    "ansC": "onPause(), onDestroy()",
    "ansD": "",
    "ansE": "",
    "correctAns": "onPause(), onStop(), onDestroy()"
  },
  {
    "question": "Koji callback-ci se pozivaju kada kliknemo home button?",
    "ansA": "onStop(), onDestroy()",
    "ansB": "onPause(), onStop(), onDestroy()",
    "ansC": "onPause(), onStop()",
    "ansD": "",
    "ansE": "",
    "correctAns": "onPause(), onStop()"
  },
  {
    "question": "Nije moguce da kreiramo user interfejs bez XML layout fajla?",
    "ansA": "Tacno",
    "ansB": "Netacno",
    "ansC": "",
    "ansD": "",
    "ansE": "",
    "correctAns": "Tacno"
  },
  {
    "question": "Svaka Android aplikacija mora imati AndroidManifest.xml fajl?",
    "ansA": "Tacno",
    "ansB": "Netacno",
    "ansC": "",
    "ansD": "",
    "ansE": "",
    "correctAns": "Tacno"
  },
  {
    "question": "Android je linux based operativni sistem?",
    "ansA": "Tacno",
    "ansB": "Netacno",
    "ansC": "",
    "ansD": "",
    "ansE": "",
    "correctAns": "Tacno"
  },
  {
    "question": "Frame layout sluzi da prikaze samo jedan item?",
    "ansA": "Tacno",
    "ansB": "Netacno",
    "ansC": "",
    "ansD": "",
    "ansE": "",
    "correctAns": "Tacno"
  },
  {
    "question": "Sta je Context?",
    "ansA": "Context je interfejs koji sadrzi informacije o aplikaciji",
    "ansB": "Koristi se da kreira nove komponente",
    "ansC": "Android ima 2 conteksta getContext() i getApplicationContext",
    "ansD": "Sve od gore navedenog",
    "ansE": "Nista od navedenog",
    "correctAns": "Sve od gore navedenog"
  },
  {
    "question": "Sta je JSON u Androidu?",
    "ansA": "Java Script Object Native",
    "ansB": "Java Script Oriented Notation",
    "ansC": "Java Script Object Notation",
    "ansD": "",
    "ansE": "",
    "correctAns": "Java Script Object Notation"
  },
  {
    "question": "Koji od navedenih programskih jezika koristimo za pisanje Android aplikacija?",
    "ansA": "PHP",
    "ansB": "VB.Net",
    "ansC": "C++",
    "ansD": "Java",
    "ansE": "",
    "correctAns": "Java"
  },
  {
    "question": "Koju metodu aktivitija koristimo da dobijemo referencu Android view-a koristeci id atribut iz Xml resurs fajla?",
    "ansA": "findViewByReference(int id);",
    "ansB": "findViewById(int id);",
    "ansC": "retrieveResourceById(int id);",
    "ansD": "findViewById(String id);",
    "ansE": "",
    "correctAns": "findViewById(int id);"
  },
  {
    "question": "Kako da podesimo graviti Viewa-a ili layouta?",
    "ansA": "android:gravity",
    "ansB": "android:layout_gravity",
    "ansC": "android:weight",
    "ansD": "android:orientation",
    "ansE": "",
    "correctAns": "android:layout_gravity"
  },
  {
    "question": "Sta ANR znaci u Android programiranju?",
    "ansA": "Dialog box se naziva ANR",
    "ansB": "Application Not Responding",
    "ansC": "Android not Responding",
    "ansD": "Nista od navedenog",
    "ansE": "",
    "correctAns": "Application Not Responding"
  },
  {
    "question": "Na kom thredu rade Android servisi?",
    "ansA": "Worker Thread",
    "ansB": "Ima svoj Thread",
    "ansC": "Main Thread",
    "ansD": "Nista od navedenog",
    "ansE": "",
    "correctAns": "Main Thread"
  },
  {
    "question": "Sta ADB znaci u Android programiranju?",
    "ansA": "Application Development Base",
    "ansB": "Android Development Base",
    "ansC": "Android Developer Base",
    "ansD": "Android Debug Bridge",
    "ansE": "",
    "correctAns": "Android Debug Bridge"
  },
  {
    "question": "Kako da zavrsimo Aktivti u Androidu?",
    "ansA": "finish()",
    "ansB": "kill()",
    "ansC": "stop()",
    "ansD": "pause()",
    "ansE": "",
    "correctAns": "finish()"
  },
  {
    "question": "Koju metodu aktivitija koristimo da dobijemo referencu Android view-a koristeci id atribut iz Xml resurs fajla?",
    "ansA": "findViewByReference(int id);",
    "ansB": "findViewById(int id);",
    "ansC": "retrieveResourceById(int id);",
    "ansD": "findViewById(String id);",
    "ansE": "",
    "correctAns": "findViewById(int id);"
  },
  {
    "question": "Mozemo deliti podakte izmedju dva Aktivitija pomocu?",
    "ansA": "Intenta",
    "ansB": "Kontent Provajdera",
    "ansC": "BroadCast Resivera",
    "ansD": "Fragmenta",
    "ansE": "",
    "correctAns": "Intenta"
  },
  {
    "question": "Sta je Singleton klasa?",
    "ansA": "Klasa u klasi",
    "ansB": "Manifest file",
    "ansC": "Anonimna klasa",
    "ansD": "Klasa koja moze da kreira samo jedan objekat",
    "ansE": "",
    "correctAns": "Klasa koja moze da kreira samo jedan objekat"
  },
  {
    "question": "Da li je moguce da imamo Aktiviti bez user interfejsa?",
    "ansA": "Ne",
    "ansB": "Da",
    "ansC": "Dobicemo run time error",
    "ansD": "",
    "ansE": "",
    "correctAns": "Da"
  },
  {
    "question": "Assets foleder sadrzi",
    "ansA": "Java Soruce Code",
    "ansB": "Resources",
    "ansC": "Static Files",
    "ansD": "Application",
    "ansE": "",
    "correctAns": "Static Files"
  },
  {
    "question": "Kako da stopiramo Servis u Androidu?",
    "ansA": "finish()",
    "ansB": "exit()",
    "ansC": "stop()",
    "ansD": "stopSelf() i stopService()",
    "ansE": "",
    "correctAns": "stopSelf() i stopService()"
  }
]