[
  {
    "id": "1",
    "title": "Sta je JAVA?",
    "context": "JVM, JRE, JDK\nJava kao open Source\nObjektno Orjentisano Programirnaje"
  },
  {
    "id": "2",
    "title": "Klasa i Objekat",
    "context": "Sta je Klasa?\nSta je Objekat?\nCemu sluzi Klase i Objekti?"
  },
  {
    "id": "3",
    "title": "Konstruktor",
    "context": "Sta je Konstruktor?\nZa sta sluzi Konstruktor?\nPrivate Konstruktor"
  },
  {
    "id": "4",
    "title": "Modifikatori Pristupa",
    "context": "Sta su Modifikatori pristupa\nDva tipa Modifikatora\nPristupni Modifikatori"
  },
  {
    "id": "5",
    "title": "Enkapsulacija",
    "context": "Cemu sluzi Enkapsulacija\nGeteri\nSeteri"
  },
  {
    "id": "6",
    "title": "Nasledjivanje",
    "context": "Cemu sluzi Nasledjivanje\nNadklase i Podklase\nSuper i this kljucne reci"
  },
  {
    "id": "7",
    "title": "Polimorfizam",
    "context": "Sta je Polimorfizam\nMetod Overloading\nMetod Overriding"
  },
  {
    "id": "8",
    "title": "Apstrakcija",
    "context": "Cemu sluzi Apstrakcija\nKako se postize Apstrakcija\nApstraktna klasa"
  },
  {
    "id": "9",
    "title": "Interfejs",
    "context": "Cemu sluzi Interfejs\nRazlika izmedju interfjesa i\napstraktinih klasa"
  },
  {
    "id": "10",
    "title": "Singleton",
    "context": "Sta je Singleton?\nKada koristimo Singleton?\nPrimer Singletona"
  }
]